name,address1,address2,postcode,city,id_country,id_state,latitude,longitude,phone,fax,email,note,active,image,monday,tuesday,wednesday,thrusday,friday,saturday,sunday
name,address1,address2,postcode,city,id_country,id_state,latitude,longitude,phone,fax,email,note,active,image,monday,tuesday,wednesday,thrusday,friday,saturday,sunday
"Sample Store","Test Street",,99501,Alaska,21,2,25.765005,-80.243797,,,samplestore@xyz.com,,1,http://yourstore.com/logo.png,"9:00 - 19:00","9:00 - 19:00","9:00 - 19:00","9:00 - 19:00","9:00 - 19:00",,
