<svg width="426" height="253" viewBox="0 0 426 253" fill="none" xmlns="http://www.w3.org/2000/svg">
<path d="M252.275 253L-0.000198153 253C-0.000205443 142.733 -0.000198473 105 -0.000205433 4.73401C183 48.0001 266.097 -16.9037 426 4.73405C426 47.9999 417.504 135.943 426 253C252.275 253 384 253 252.275 253Z" fill="#F1F1F1"/>
</svg>
