<svg width="347" height="336" viewBox="0 0 347 336" fill="none" xmlns="http://www.w3.org/2000/svg">
<mask id="mask0" mask-type="alpha" maskUnits="userSpaceOnUse" x="0" y="0" width="347" height="337">
<path d="M0 0.542969H342C344.761 0.542969 347 2.78155 347 5.54297V331C347 333.762 344.761 336 342 336H0V0.542969Z" fill="#0154A6"/>
</mask>
<g mask="url(#mask0)">
<path opacity="0.8" d="M-110.825 71.178C-78.7662 90.9856 -45.0676 92.5383 -9.96956 80.982C36.5655 65.655 80.039 43.1191 124.497 22.9122C162.306 5.722 213.509 5.22884 213.509 5.22884C245.248 5.22884 273.979 15.2919 285.389 22.9122C312.871 41.267 330.495 80.5421 333.729 94.2603C336.319 105.247 339.532 130.81 333.729 171.347C323.082 245.732 278.71 299.841 239.325 357.978C238.197 359.835 237.168 361.753 236.242 363.722C157.955 363.841 79.6746 363.952 1.40178 364.055C-33.1933 364.166 -67.7885 363.922 -102.384 364.166C-108.507 364.166 -111.306 363.345 -111.306 355.937C-110.941 261.017 -110.781 166.098 -110.825 71.178Z" fill="#00AED7"/>
</g>
</svg>
