<svg width="17" height="14" viewBox="0 0 17 14" fill="none" xmlns="http://www.w3.org/2000/svg">
<rect y="0.5" width="17" height="2" rx="1" fill="#0154A6"/>
<rect y="5.96063" width="17" height="2" rx="1" fill="#0154A6"/>
<rect y="11.4216" width="17" height="2" rx="1" fill="#00A4A9"/>
</svg>
