<svg width="30" height="16" viewBox="0 0 30 16" fill="none" xmlns="http://www.w3.org/2000/svg">
<path d="M29.6265 7.58592C26.9907 4.37458 21.4102 0.626953 15.3197 0.626953C9.20732 0.626953 3.62663 4.40005 1.01287 7.58592C0.754824 7.90043 0.754824 8.35341 1.01287 8.66793C3.71119 11.9569 9.30473 15.627 15.3197 15.627C21.5484 15.627 27.1051 11.7399 29.6265 8.66799C29.8846 8.35342 29.8846 7.90043 29.6265 7.58592ZM21.1137 8.12692C21.1137 11.3218 18.5145 13.921 15.3196 13.921C12.1247 13.921 9.52554 11.3216 9.52554 8.12692C9.52554 4.93207 12.1247 2.33282 15.3196 2.33282C18.5148 2.33287 21.1137 4.93242 21.1137 8.12692ZM2.8245 8.12715C3.78454 7.12936 6.09936 4.97597 9.34886 3.59389C7.3096 6.27344 7.3088 9.97819 9.34789 12.6587C6.87721 11.6116 4.58206 9.95715 2.8245 8.12715ZM21.2905 12.66C23.3298 9.98035 23.3305 6.27566 21.2915 3.59514C23.7621 4.64229 26.0573 6.29675 27.8149 8.12664C26.8549 9.12455 24.54 11.2778 21.2905 12.66Z" fill="#F7951F"/>
<path d="M12.4194 8.12687C12.4194 9.726 13.7204 11.0269 15.3195 11.0269C16.9186 11.0269 18.2196 9.726 18.2196 8.12687C18.2196 6.52774 16.9186 5.22681 15.3195 5.22681C13.7204 5.22681 12.4194 6.52774 12.4194 8.12687ZM16.5136 8.12687C16.5136 8.78536 15.9779 9.32102 15.3195 9.32102C14.661 9.32102 14.1254 8.78536 14.1254 8.12687C14.1254 7.46839 14.661 6.93273 15.3195 6.93273C15.9779 6.93273 16.5136 7.46839 16.5136 8.12687Z" fill="#F7951F"/>
</svg>
